{
    "Traduzioni Online": "Tra i più citati modi per partecipare attivamente al software libero viene citato quello delle traduzioni, che permettono di rendere accessibili le applicazioni ad un pubblico sempre più esteso aggirando il problema della lingua nativa, ma non è sempre chiaro come attuare tale proposito. Fortunatamente esistono piattaforme web che facilitano questo compito, permettendo di agire per mezzo di una comoda interfaccia web: tra questi <a href='https://hosted.weblate.org/projects/' rel='nofollow'>Weblate</a> e <a href='https://translatewiki.net/' rel='nofollow'>TranslateWiki</a>, presso cui sono ospitati diversi progetti. Per contribuire utilizzando strumenti più sofisticati, si possono consultare le <a href='/italiano'>community italiane</a> di traduzione dei progetti più popolari.",
    "App Wikimedia Commons": "<a href='https://commons.wikimedia.org/' rel='nofollow'>Wikimedia Commons</a> è come Wikipedia, ma per le immagini: qui si trovano migliaia di foto, disegni e riproduzioni, tutte fruibili con licenza libera. Uno dei metodi più comodi e veloci per contribuire ad arricchire questo patrimonio visivo è per mezzo dell'<a href='https://commons-app.github.io/' rel='nofollow'>apposita app</a>, con la quale è possibile non solo caricare e categorizzare facilmente le proprie foto scattate con il telefono, ma anche esplorare la mappa alla ricerca dei soggetti enciclopedici presenti su Wikipedia che ancora non hanno una immagine.",
    "Open Source Design": "Non di solo codice è fatto il software libero: <a href='http://opensourcedesign.net/' rel='nofollow'>Open Souce Design</a> è una community di sviluppatori e soprattutto di designer, il cui scopo è rendere più bello, comodo, pratico ed usabile il software open. Tra le altre cose ospita una <a href='http://opensourcedesign.net/jobs/' rel='nofollow'>bacheca di richieste</a> per loghi, mockups, interfacce, studi e componenti grafici destinati ad arricchire progetti opensource: ideale per tutti i designers - in erba o già rodati - che vogliono contribuire a modo loro!",
    "OpenStreetMap": "<a href='http://www.openstreetmap.org/' rel='nofollow'>OpenStreetMap</a> non è solo una alternativa a Google Maps, ma un database di informazioni geografiche e georeferenziate a disposizione di tutti. Contribuire è facile, e reso ancora più facile dall'editor integrato sul sito stesso: basta registrare un account, cliccare il tasto 'Edit' in alto a sinistra, e si può iniziare a caricare nuovi punti di interesse (negozi, locali, monumenti...), arricchire le informazioni di quelli esistenti (numeri di telefono, orari di apertura, siti web di riferimento...) e fornire nuovi dettagli sulle strade già mappate (utilissime per le applicazioni di navigazione).",
    "Common Voice": "Il progetto Common Voice di Mozilla punta ad ottenere modelli linguistici liberi e riutilizzabili per costruire applicazioni di riconoscimento della voce. Un obiettivo molto importante, data l'evoluzione dei dispositivi mobili e delle interfacce vocali, ma per raggiungerlo è indispensabile raccogliere quanti più campioni possibili da parte di tante persone in tanti contesti diversi. Recentemente al progetto è stato aggiunto il supporto per la lingua italiana, e contribuire è semplice: <a href='https://voice.mozilla.org/it' rel='nofollow'>basta accedere al sito</a> e farsi registrare mentre si leggono alcune frasi predefinite.",
    "StreetComplete": "Contribuire a OpenStreeMap, il più popolare database libero di informazioni geografiche, è molto semplice, e con la app <a href='https://play.google.com/store/apps/details?id=de.westnordost.streetcomplete' rel='nofollow'>StreetComplete</a> lo è ancora di più: basta installarla per trovare dozzine di domande relative al luogo in cui ci si trova, da compilare in modo facile e veloce mentre ci si trova in giro per la città.",
    "CodeTriage": "Sei un programmatore e vuoi contribuire attivamente al mondo opensource, ma non sai da che parte iniziare? Su <a href='https://www.codetriage.com/' rel='nofollow'>CodeTriage</a> trovi migliaia di 'issue', piccoli problemi da risolvere giorno dopo giorno. Per condividere, e per migliorare le tue capacità di programmazione con sfide sempre nuove.",
    "MapRoulette": "Su <a href='https://maproulette.org/' rel='nofollow'>maproulette.org</a> contribuire a OpenStreetMap - la mappa libera - diventa un gioco: vengono proposti diversi task, di diverse difficoltà, ed una facile interfaccia che permette di perfezionare ed arricchire i dati presenti sul database geografico pubblico.",
    "LinuxSi": "<a href='https://linuxsi.com/'>LinuxSi</a> è l'indice dei negozi di informatica che vendono PC con Linux pre-installato, o offrono assistenza su di esso. Dacci una mano a popolarlo, contattando i negozi della tua zona e <a href='https://linuxsi.com/partecipa/'>mandandoci una segnalazione</a>!",
    "ILS Brainstorm": "Italian Linux Society ha aperto su GitLab <a href='https://gitlab.com/ItalianLinuxSociety/brainstorm' rel='nofollow'>un repository</a> destinato a raccogliere spunti e idee per la promozione del software libero in Italia: se vuoi partecipare (non solo con delle proposte, ma anche e soprattutto prendendoti in carico qualche attività pratica) dagli una occhiata!",
    "Boinc": "<a href='https://boinc.berkeley.edu/'>Boinc</a> è una piattaforma - libera e open source - per il calcolo distribuito, cui tutti possono partecipare installando il client sul proprio computer e 'donando' parte della propria potenza computazionale alla ricerca scientifica. Maggiori informazioni si trovano <a href='https://www.boincitaly.org/'>sul sito della community italiana</a>.",
    "KartaView": "<a href='https://kartaview.org/'>KartaView</a> è un progetto collettivo per raccogliere immagini delle strade. Come nel più popolare Google Street View, ma qui le foto vengono usate (in modo più o meno automatico) per migliorare <a href='https://www.openstreetmap.org/'>OpenStreetMap</a>, la mappa libera.",
    "Open Etymology Map": "Da dove deriva il nome di strade e piazze? Con <a href='https://mapcomplete.osm.be/etymology.html'>Open Etymology Map</a> è possibile collegare gli elementi di OpenStreetMap (la popolare mappa libera) con le entità su Wikidata (il 'database' di Wikipedia), e contribuire a dare una dimensione storica e culturale ai dati geografici."
}
